…
```
## Warning in evalq(as.double(lon), <environment>): NAs durch Umwandlung
## erzeugt
```

```
## 	Radiocarbon date list
## 	dates		5044
## 	sites		1743
## 	uncalBP		51700 ― 0 
## 
## # A tibble: 5,044 x 15
##    sourcedb method  labnr  c14age c14std c13val site    sitetype   feature
##    <chr>    <chr>   <chr>   <int>  <int>  <dbl> <chr>   <chr>      <chr>  
##  1 AustArch Radioc… ANU-1…   9430    150   NA   Wyrie … Aborigina… <NA>   
##  2 AustArch Radioc… GaK-1…    140     60   NA   Grafto… Aborigina… <NA>   
##  3 AustArch Radioc… Wk-26…    433     35  -26.1 Stocky… Artefact … <NA>   
##  4 AustArch Radioc… Beta-…  11730    430   NA   APC01 … Artefact … <NA>   
##  5 AustArch Radioc… OZF104   7910     40   NA   AWA 01… Artefact … <NA>   
##  6 AustArch Radioc… CAMS-…   4040     80   NA   Gunbil… Beeswax f… <NA>   
##  7 AustArch Radioc… CAMS-…   4460     80   NA   Gunbil… Beeswax f… <NA>   
##  8 AustArch Radioc… OZD-9…   3820     70   NA   Gunbil… Beeswax f… <NA>   
##  9 AustArch Radioc… GX-26…   2285    125   NA   Greenb… Burial     <NA>   
## 10 AustArch Radioc… Wk-63…    430     50   NA   Denham… Burial     Surface
## # ... with 5,034 more rows, and 6 more variables: material <chr>,
## #   region <chr>, lat <dbl>, lon <dbl>, shortref <chr>, comment <chr>
```
…
```r
adrac <- get_aDRAC()
radonb <- get_RADONB()

fuse(adrac, radonb)
```

```
## 	Radiocarbon date list
## 	dates		12213
## 	sites		3243
## 	countries	59
## 	uncalBP		80000 ― 0 
## 
## # A tibble: 12,213 x 16
##    sourcedb labnr    c14age c14std c13val site   feature material country
##    <chr>    <chr>     <int>  <int>  <dbl> <chr>  <chr>   <chr>    <chr>  
##  1 aDRAC    AA-78447   2362     39     0. Mbaere <NA>    <NA>     CAF    
##  2 aDRAC    AA-78448   2171     37     0. Mbaere <NA>    <NA>     CAF    
##  3 aDRAC    AA-78449    834     35     0. Mbaere <NA>    <NA>     CAF    
##  4 aDRAC    AA-94529    215     34     0. Ngotto BB01-29 <NA>     CAF    
##  5 aDRAC    AA-94530    168     35     0. Ngotto BB01-30 <NA>     CAF    
##  6 aDRAC    AA-94531    207     35     0. Ngotto BB01-31 <NA>     CAF    
##  7 aDRAC    AA-94532    148     34     0. Ngotto BB01-36 <NA>     CAF    
##  8 aDRAC    AA-94533    231     34     0. Ngotto BB05-32 <NA>     CAF    
##  9 aDRAC    AA-94534    187     34     0. Ngotto BB05-41 <NA>     CAF    
## 10 aDRAC    AA-94537    160     35     0. Ngotto ND01-03 <NA>     CAF    
## # ... with 12,203 more rows, and 7 more variables: lat <dbl>, lon <dbl>,
## #   shortref <chr>, sitetype <chr>, period <chr>, culture <chr>,
## #   species <chr>
```
…
The distinct set of variables and how they relate to the variables in the source databases are documented [here](https://github.com/ISAAKiel/c14bazAAR/blob/master/data-raw/variable_reference.csv). 


```r
variable_reference
```

```
## # A tibble: 74 x 13
##    c14bazAAR type  definition source `14SEA` ADRAC AUSTARCH CALPAL CONTEXT
##    <chr>     <chr> <chr>      <chr>  <chr>   <chr> <chr>    <chr>  <chr>  
##  1 sourcedb  char… Source da… c14ba… ""      ""    ""       ""     ""     
##  2 method    char… Radiocarb… datab… ""      ""    METHOD   METHOD ""     
##  3 labnr     char… Laborator… datab… Lab. n… LABNR LAB_CODE LABNR  LABNR  
##  4 c14age    inte… 14C age [… datab… Date BP C14A… AGE      C14AGE C14AGE 
##  5 c14std    inte… Standard … datab… ±       C14S… ERROR    C14STD C14STD 
##  6 calprobd… data… Probabili… c14ba… ""      ""    ""       ""     ""     
##  7 calrange  data… sigma ran… c14ba… ""      ""    ""       ""     ""     
##  8 sigma     doub… sigma val… c14ba… ""      ""    ""       ""     ""     
##  9 c13val    doub… Carbon-13… datab… δ13C    C13   C13_AGE  C13    C13    
## 10 site      char… Site name  datab… Site    SITE  SITE     SITE   SITE   
## # ... with 64 more rows, and 4 more variables: EUROEVOL <chr>,
## #   RADON <chr>, RADONB <chr>, KITEEASTAFRICA <chr>
```
…
```r
dates_selection
```

```
## 	Radiocarbon date list
## 	dates		101
## 	sites		3
## 	countries	1
## 	uncalBP		11900 ― 1100 
## 
## # A tibble: 101 x 19
##    sourcedb method labnr   c14age c14std c13val site      sitetype feature
##    <chr>    <chr>  <chr>    <int>  <int>  <dbl> <chr>     <chr>    <chr>  
##  1 CALPAL   14C    OxA-64…   9360     75     0. Mont-sur… <NA>     <NA>   
##  2 CALPAL   14C    OxA-64…   9410     70     0. Mont-sur… <NA>     <NA>   
##  3 CALPAL   14C    OxA-64…   9015     80     0. Mont-sur… <NA>     <NA>   
##  4 CALPAL   14C    GrN-12…   8650     45     0. Moordena… <NA>     <NA>   
##  5 CALPAL   14C    GrN-12…   6530     30     0. Moordena… <NA>     <NA>   
##  6 CALPAL   14C    GrN-12…   6070    120     0. Moordena… <NA>     <NA>   
##  7 CALPAL   14C    Lv-1294   6270    120     0. Moordena… <NA>     <NA>   
##  8 CALPAL   14C    Lv-1295   6320    120     0. Moordena… <NA>     <NA>   
##  9 CALPAL   14C    Lv-1335   7990    110     0. Moordena… <NA>     <NA>   
## 10 CALPAL   14C    BM-289    4230    130     0. <NA>      <NA>     <NA>   
## # ... with 91 more rows, and 10 more variables: period <chr>,
## #   culture <chr>, material <chr>, species <chr>, region <chr>,
## #   country <chr>, lat <dbl>, lon <dbl>, shortref <chr>, comment <chr>
```
…
The thesaurus is prepared for all entries in all databases that are currently accessible with c14bazAAR. But as soon as new information is entered into the source databases or new source databases are added it needs servicing.


```r
material_thesaurus
```

```
## # A tibble: 977 x 2
##    cor    var                        
##    <chr>  <chr>                      
##  1 antler antler                     
##  2 antler horn                       
##  3 antler hjorthorn                  
##  4 antler Red deer antler            
##  5 antler Red deer modified antler   
##  6 antler Cervus elaphus, antler tool
##  7 antler Cervus elaphus, antler     
##  8 antler Red deer antler, tool      
##  9 antler Cervid antler              
## 10 antler Red deer, antler           
## # ... with 967 more rows
```
…
Another way to get a first understanding on the data without the duplicates is to just keep the first date in every duplicate group.


```r
duplicate_selection[!is.na(duplicate_selection$duplicate_group), ] %>%
  dplyr::group_by(duplicate_group) %>%
  dplyr::do(head(., n = 1)) %>% 
  dplyr::ungroup()
```

```
## # A tibble: 159 x 20
##    sourcedb method labnr  c14age c14std c13val site       sitetype feature
##    <chr>    <chr>  <chr>   <int>  <int>  <dbl> <chr>      <chr>    <chr>  
##  1 CALPAL   14C    Lu-15…   6710     70     0. Ageröd V   <NA>     <NA>   
##  2 RADON    <NA>   HAR-6…   3570    100    NA  Brenig     <NA>     <NA>   
##  3 EUROEVOL <NA>   GrN-2…   8020     50    NA  Groningen  <NA>     <NA>   
##  4 CALPAL   14C    Lu-845   3540     60     0. Hindby mo… <NA>     <NA>   
##  5 RADON    <NA>   Beta-…   5020    110    NA  Arene Can… <NA>     BB08 H 
##  6 RADON    <NA>   OxA-1…   9700    160    NA  Vale of P… <NA>     56     
##  7 CALPAL   14C    H-491…   5140    115     0. Heidmoor   <NA>     <NA>   
##  8 RADON    <NA>   GrA-2…   4965     40    NA  Whitehawk  <NA>     <NA>   
##  9 EUROEVOL <NA>   GrN-2…   6890     60    NA  Zwolle-Ha… <NA>     <NA>   
## 10 EUROEVOL <NA>   Gif-1…   3700    120    NA  La Chauss… <NA>     <NA>   
## # ... with 149 more rows, and 11 more variables: period <chr>,
## #   culture <chr>, material <chr>, species <chr>, region <chr>,
## #   country <chr>, lat <dbl>, lon <dbl>, shortref <chr>, comment <chr>,
## #   duplicate_group <int>
```
…
