…
```r
# First, we add another column to our data, containing the R_Date string for that date:

bawue_final %<>% rowwise() %>%            # for each date (=row)
  mutate(oxcal_string = R_Date(labnr,     # add a column containing the R_Date code
                               c14age,
                               c14std)) %>%
  ungroup()                               # remove the rowwise grouping again

bawue_final %>% select(sourcedb,labnr,c14age, c14std, oxcal_string)
```

```
## # A tibble: 664 x 5
##    sourcedb labnr      c14age c14std oxcal_string                       
##    <chr>    <chr>       <int>  <int> <chr>                              
##  1 CALPAL   B-936        8140    700 "R_Date(\"B-936\", 8140, 700);"    
##  2 CALPAL   Bln-167      5200    100 "R_Date(\"Bln-167\", 5200, 100);"  
##  3 CALPAL   Bln-54       5140     80 "R_Date(\"Bln-54\", 5140, 80);"    
##  4 CALPAL   Bln-70       5240    100 "R_Date(\"Bln-70\", 5240, 100);"   
##  5 CALPAL   Bln-71       5200    100 "R_Date(\"Bln-71\", 5200, 100);"   
##  6 EUROEVOL Erl-110008   3559     57 "R_Date(\"Erl-110008\", 3559, 57);"
##  7 EUROEVOL Erl-11010    4615     61 "R_Date(\"Erl-11010\", 4615, 61);" 
##  8 EUROEVOL Erl-11011    4490     58 "R_Date(\"Erl-11011\", 4490, 58);" 
##  9 EUROEVOL Erl-11012    4297     59 "R_Date(\"Erl-11012\", 4297, 59);" 
## 10 EUROEVOL Erl-11013    4510     77 "R_Date(\"Erl-11013\", 4510, 77);" 
## # ... with 654 more rows
```
…
```r
# Then we clue them together per site

site_sums <- bawue_final %>%       # Take the dates
  group_by(site) %>%               # per site do
  summarise(
    oxcal_string = paste(
      oxcal_string, 
      collapse = "\n")             # join the strings by a line break
  )
site_sums
```

```
## # A tibble: 119 x 2
##    site                         oxcal_string                              
##    <chr>                        <chr>                                     
##  1 Aichbühl                     "R_Date(\"Hd-7932-7999\", 5535, 45);\nR_D…
##  2 Aichtal-Grötzingen           "R_Date(\"Erl-12625\", 3673, 41);"        
##  3 Aldingen                     "R_Date(\"Hd-13664\", 3685, 40);\nR_Date(…
##  4 Allensbach-Kapplerfeld       "R_Date(\"Hd-10636-10617\", 5060, 60);\nR…
##  5 Allensbach-Lohhorn           "R_Date(\"Hd-19655\", 4175, 32);\nR_Date(…
##  6 Allensbach-Seeweg            "R_Date(\"Hd-19714\", 5054, 28);"         
##  7 Allensbach-Strandbad         "R_Date(\"Erl-11012\", 4297, 59);\nR_Date…
##  8 Alleshausen                  "R_Date(\"Hd-11751\", 4185, 45);\nR_Date(…
##  9 "Alleshausen \"Hartöschle\"" "R_Date(\"Hd-9507-9266\", 5700, 50);\nR_D…
## 10 Alleshausen, Grundwiesen     "R_Date(\"Hd-14821-15018\", 4086, 18);\nR…
## # ... with 109 more rows
```
…
